<?xml version="1.0" standalone="no"?>
<!DOCTYPE svg PUBLIC "-//W3C//DTD SVG 20010904//EN"
 "http://www.w3.org/TR/2001/REC-SVG-20010904/DTD/svg10.dtd">
<svg version="1.0" xmlns="http://www.w3.org/2000/svg"
 width="480.000000pt" height="480.000000pt" viewBox="0 0 480.000000 480.000000"
 preserveAspectRatio="xMidYMid meet">
<metadata>
Created by potrace 1.11, written by Peter Selinger 2001-2013
</metadata>
<g transform="translate(0.000000,480.000000) scale(0.100000,-0.100000)"
fill="#000000" stroke="none">
<path d="M1197 3592 l-1197 -1197 1200 -1200 1200 -1200 1200 1200 1200 1200
-1197 1197 c-659 659 -1200 1198 -1203 1198 -3 0 -544 -539 -1203 -1198z
m2396 -10 l1187 -1187 -1190 -1190 -1190 -1190 -1190 1190 -1190 1190 1187
1187 c654 654 1190 1188 1193 1188 3 0 539 -534 1193 -1188z"/>
<path d="M1212 3577 l-1182 -1182 1185 -1185 1185 -1185 1185 1185 1185 1185
-1182 1182 c-651 651 -1185 1183 -1188 1183 -3 0 -537 -532 -1188 -1183z
m1545 591 l353 -353 -351 -354 -351 -354 336 -336 336 -336 305 305 305 305
320 -320 320 -320 -710 -710 -710 -710 -270 270 -270 270 -268 -268 -267 -267
-710 710 -710 710 320 320 320 320 320 -320 320 -320 347 348 347 347 -350
354 -351 354 354 354 c194 194 355 353 358 353 3 0 164 -159 357 -352z"/>
<path d="M2047 4162 l-347 -348 345 -347 c190 -191 349 -347 353 -347 4 0 163
156 355 348 l347 347 -348 348 c-191 191 -349 347 -352 347 -3 0 -162 -157
-353 -348z"/>
<path d="M2045 2750 l-350 -350 -320 320 -320 320 -315 -315 -315 -315 705
-705 705 -705 267 267 268 268 270 -270 270 -270 705 705 705 705 -315 315
-315 315 -305 -305 -305 -305 -338 338 c-185 185 -339 337 -342 337 -3 0 -163
-157 -355 -350z"/>
</g>
</svg>
